Geografía Ambiental : Ejercicio Práctico en R: Paisajes
…
## Ver la lista completa de los metricos que podemos calcular
## print(list_lsm(),n=133)

## P. ej. Calcular el área de cada uno de los parches
lsm_p_area(r2_small_r)

## # A tibble: 266 × 6
##    layer level class    id metric  value
##    <int> <chr> <int> <int> <chr>   <dbl>
##  1     1 patch     0     1 area   0.414 
##  2     1 patch     0     2 area   0.138 
##  3     1 patch     0     3 area   0.621 
##  4     1 patch     0     4 area   0.276 
##  5     1 patch     0     5 area   0.0690
##  6     1 patch     0     6 area   0.207 
##  7     1 patch     0     7 area   0.276 
##  8     1 patch     0     8 area   0.345 
##  9     1 patch     0     9 area   0.138 
## 10     1 patch     0    10 area   0.621 
## # ℹ 256 more rows
…
